('C:\\Users\\Jacob\\Documents\\Python\\Star '
 'Wars\\build\\Star_Wars_Adventure\\Star_Wars_Adventure.pkg',
 {'BINARY': 1,
  'DATA': 1,
  'EXECUTABLE': 1,
  'EXTENSION': 1,
  'PYMODULE': 1,
  'PYSOURCE': 1,
  'PYZ': 0,
  'SPLASH': 1},
 [('PYZ-00.pyz',
   'C:\\Users\\Jacob\\Documents\\Python\\Star '
   'Wars\\build\\Star_Wars_Adventure\\PYZ-00.pyz',
   'PYZ'),
  ('struct',
   'C:\\Users\\Jacob\\Documents\\Python\\Star '
   'Wars\\build\\Star_Wars_Adventure\\localpycs\\struct.pyc',
   'PYMODULE'),
  ('pyimod01_archive',
   'C:\\Users\\Jacob\\Documents\\Python\\Star '
   'Wars\\build\\Star_Wars_Adventure\\localpycs\\pyimod01_archive.pyc',
   'PYMODULE'),
  ('pyimod02_importers',
   'C:\\Users\\Jacob\\Documents\\Python\\Star '
   'Wars\\build\\Star_Wars_Adventure\\localpycs\\pyimod02_importers.pyc',
   'PYMODULE'),
  ('pyimod03_ctypes',
   'C:\\Users\\Jacob\\Documents\\Python\\Star '
   'Wars\\build\\Star_Wars_Adventure\\localpycs\\pyimod03_ctypes.pyc',
   'PYMODULE'),
  ('pyimod04_pywin32',
   'C:\\Users\\Jacob\\Documents\\Python\\Star '
   'Wars\\build\\Star_Wars_Adventure\\localpycs\\pyimod04_pywin32.pyc',
   'PYMODULE'),
  ('pyiboot01_bootstrap',
   'C:\\Users\\Jacob\\AppData\\Local\\Programs\\Python\\Python311\\Lib\\site-packages\\PyInstaller\\loader\\pyiboot01_bootstrap.py',
   'PYSOURCE'),
  ('pyi_rth_subprocess',
   'C:\\Users\\Jacob\\AppData\\Local\\Programs\\Python\\Python311\\Lib\\site-packages\\PyInstaller\\hooks\\rthooks\\pyi_rth_subprocess.py',
   'PYSOURCE'),
  ('pyi_rth_inspect',
   'C:\\Users\\Jacob\\AppData\\Local\\Programs\\Python\\Python311\\Lib\\site-packages\\PyInstaller\\hooks\\rthooks\\pyi_rth_inspect.py',
   'PYSOURCE'),
  ('pyi_rth_pkgres',
   'C:\\Users\\Jacob\\AppData\\Local\\Programs\\Python\\Python311\\Lib\\site-packages\\PyInstaller\\hooks\\rthooks\\pyi_rth_pkgres.py',
   'PYSOURCE'),
  ('pyi_rth_pkgutil',
   'C:\\Users\\Jacob\\AppData\\Local\\Programs\\Python\\Python311\\Lib\\site-packages\\PyInstaller\\hooks\\rthooks\\pyi_rth_pkgutil.py',
   'PYSOURCE'),
  ('pyi_rth__tkinter',
   'C:\\Users\\Jacob\\AppData\\Local\\Programs\\Python\\Python311\\Lib\\site-packages\\PyInstaller\\hooks\\rthooks\\pyi_rth__tkinter.py',
   'PYSOURCE'),
  ('Star_Wars_Adventure',
   'C:\\Users\\Jacob\\Documents\\Python\\Star Wars\\Star_Wars_Adventure.py',
   'PYSOURCE')],
 True,
 False,
 False,
 [],
 None,
 None,
 None)
