('C:\\Users\\Jacob\\Documents\\Python\\Star '
 'Wars\\build\\Star_Wars_Adventure\\PYZ-00.pyz',
 [('pkgutil',
   'C:\\Users\\Jacob\\AppData\\Local\\Programs\\Python\\Python311\\Lib\\pkgutil.py',
   'PYMODULE'),
  ('zipimport',
   'C:\\Users\\Jacob\\AppData\\Local\\Programs\\Python\\Python311\\Lib\\zipimport.py',
   'PYMODULE'),
  ('importlib.readers',
   'C:\\Users\\Jacob\\AppData\\Local\\Programs\\Python\\Python311\\Lib\\importlib\\readers.py',
   'PYMODULE'),
  ('importlib.resources.readers',
   'C:\\Users\\Jacob\\AppData\\Local\\Programs\\Python\\Python311\\Lib\\importlib\\resources\\readers.py',
   'PYMODULE'),
  ('importlib.resources._itertools',
   'C:\\Users\\Jacob\\AppData\\Local\\Programs\\Python\\Python311\\Lib\\importlib\\resources\\_itertools.py',
   'PYMODULE'),
  ('typing',
   'C:\\Users\\Jacob\\AppData\\Local\\Programs\\Python\\Python311\\Lib\\typing.py',
   'PYMODULE'),
  ('contextlib',
   'C:\\Users\\Jacob\\AppData\\Local\\Programs\\Python\\Python311\\Lib\\contextlib.py',
   'PYMODULE'),
  ('importlib.resources.abc',
   'C:\\Users\\Jacob\\AppData\\Local\\Programs\\Python\\Python311\\Lib\\importlib\\resources\\abc.py',
   'PYMODULE'),
  ('importlib.resources',
   'C:\\Users\\Jacob\\AppData\\Local\\Programs\\Python\\Python311\\Lib\\importlib\\resources\\__init__.py',
   'PYMODULE'),
  ('importlib.resources._legacy',
   'C:\\Users\\Jacob\\AppData\\Local\\Programs\\Python\\Python311\\Lib\\importlib\\resources\\_legacy.py',
   'PYMODULE'),
  ('importlib.resources._common',
   'C:\\Users\\Jacob\\AppData\\Local\\Programs\\Python\\Python311\\Lib\\importlib\\resources\\_common.py',
   'PYMODULE'),
  ('importlib.resources._adapters',
   'C:\\Users\\Jacob\\AppData\\Local\\Programs\\Python\\Python311\\Lib\\importlib\\resources\\_adapters.py',
   'PYMODULE'),
  ('tempfile',
   'C:\\Users\\Jacob\\AppData\\Local\\Programs\\Python\\Python311\\Lib\\tempfile.py',
   'PYMODULE'),
  ('shutil',
   'C:\\Users\\Jacob\\AppData\\Local\\Programs\\Python\\Python311\\Lib\\shutil.py',
   'PYMODULE'),
  ('tarfile',
   'C:\\Users\\Jacob\\AppData\\Local\\Programs\\Python\\Python311\\Lib\\tarfile.py',
   'PYMODULE'),
  ('argparse',
   'C:\\Users\\Jacob\\AppData\\Local\\Programs\\Python\\Python311\\Lib\\argparse.py',
   'PYMODULE'),
  ('textwrap',
   'C:\\Users\\Jacob\\AppData\\Local\\Programs\\Python\\Python311\\Lib\\textwrap.py',
   'PYMODULE'),
  ('gettext',
   'C:\\Users\\Jacob\\AppData\\Local\\Programs\\Python\\Python311\\Lib\\gettext.py',
   'PYMODULE'),
  ('gzip',
   'C:\\Users\\Jacob\\AppData\\Local\\Programs\\Python\\Python311\\Lib\\gzip.py',
   'PYMODULE'),
  ('_compression',
   'C:\\Users\\Jacob\\AppData\\Local\\Programs\\Python\\Python311\\Lib\\_compression.py',
   'PYMODULE'),
  ('copy',
   'C:\\Users\\Jacob\\AppData\\Local\\Programs\\Python\\Python311\\Lib\\copy.py',
   'PYMODULE'),
  ('struct',
   'C:\\Users\\Jacob\\AppData\\Local\\Programs\\Python\\Python311\\Lib\\struct.py',
   'PYMODULE'),
  ('lzma',
   'C:\\Users\\Jacob\\AppData\\Local\\Programs\\Python\\Python311\\Lib\\lzma.py',
   'PYMODULE'),
  ('bz2',
   'C:\\Users\\Jacob\\AppData\\Local\\Programs\\Python\\Python311\\Lib\\bz2.py',
   'PYMODULE'),
  ('zipfile',
   'C:\\Users\\Jacob\\AppData\\Local\\Programs\\Python\\Python311\\Lib\\zipfile.py',
   'PYMODULE'),
  ('py_compile',
   'C:\\Users\\Jacob\\AppData\\Local\\Programs\\Python\\Python311\\Lib\\py_compile.py',
   'PYMODULE'),
  ('importlib._bootstrap_external',
   'C:\\Users\\Jacob\\AppData\\Local\\Programs\\Python\\Python311\\Lib\\importlib\\_bootstrap_external.py',
   'PYMODULE'),
  ('importlib.metadata',
   'C:\\Users\\Jacob\\AppData\\Local\\Programs\\Python\\Python311\\Lib\\importlib\\metadata\\__init__.py',
   'PYMODULE'),
  ('importlib.abc',
   'C:\\Users\\Jacob\\AppData\\Local\\Programs\\Python\\Python311\\Lib\\importlib\\abc.py',
   'PYMODULE'),
  ('importlib._abc',
   'C:\\Users\\Jacob\\AppData\\Local\\Programs\\Python\\Python311\\Lib\\importlib\\_abc.py',
   'PYMODULE'),
  ('importlib._bootstrap',
   'C:\\Users\\Jacob\\AppData\\Local\\Programs\\Python\\Python311\\Lib\\importlib\\_bootstrap.py',
   'PYMODULE'),
  ('importlib.metadata._itertools',
   'C:\\Users\\Jacob\\AppData\\Local\\Programs\\Python\\Python311\\Lib\\importlib\\metadata\\_itertools.py',
   'PYMODULE'),
  ('importlib.metadata._functools',
   'C:\\Users\\Jacob\\AppData\\Local\\Programs\\Python\\Python311\\Lib\\importlib\\metadata\\_functools.py',
   'PYMODULE'),
  ('importlib.metadata._collections',
   'C:\\Users\\Jacob\\AppData\\Local\\Programs\\Python\\Python311\\Lib\\importlib\\metadata\\_collections.py',
   'PYMODULE'),
  ('importlib.metadata._meta',
   'C:\\Users\\Jacob\\AppData\\Local\\Programs\\Python\\Python311\\Lib\\importlib\\metadata\\_meta.py',
   'PYMODULE'),
  ('importlib.metadata._adapters',
   'C:\\Users\\Jacob\\AppData\\Local\\Programs\\Python\\Python311\\Lib\\importlib\\metadata\\_adapters.py',
   'PYMODULE'),
  ('importlib.metadata._text',
   'C:\\Users\\Jacob\\AppData\\Local\\Programs\\Python\\Python311\\Lib\\importlib\\metadata\\_text.py',
   'PYMODULE'),
  ('email.message',
   'C:\\Users\\Jacob\\AppData\\Local\\Programs\\Python\\Python311\\Lib\\email\\message.py',
   'PYMODULE'),
  ('email.policy',
   'C:\\Users\\Jacob\\AppData\\Local\\Programs\\Python\\Python311\\Lib\\email\\policy.py',
   'PYMODULE'),
  ('email.contentmanager',
   'C:\\Users\\Jacob\\AppData\\Local\\Programs\\Python\\Python311\\Lib\\email\\contentmanager.py',
   'PYMODULE'),
  ('email.quoprimime',
   'C:\\Users\\Jacob\\AppData\\Local\\Programs\\Python\\Python311\\Lib\\email\\quoprimime.py',
   'PYMODULE'),
  ('string',
   'C:\\Users\\Jacob\\AppData\\Local\\Programs\\Python\\Python311\\Lib\\string.py',
   'PYMODULE'),
  ('email.headerregistry',
   'C:\\Users\\Jacob\\AppData\\Local\\Programs\\Python\\Python311\\Lib\\email\\headerregistry.py',
   'PYMODULE'),
  ('email._header_value_parser',
   'C:\\Users\\Jacob\\AppData\\Local\\Programs\\Python\\Python311\\Lib\\email\\_header_value_parser.py',
   'PYMODULE'),
  ('email.iterators',
   'C:\\Users\\Jacob\\AppData\\Local\\Programs\\Python\\Python311\\Lib\\email\\iterators.py',
   'PYMODULE'),
  ('email.generator',
   'C:\\Users\\Jacob\\AppData\\Local\\Programs\\Python\\Python311\\Lib\\email\\generator.py',
   'PYMODULE'),
  ('email._encoded_words',
   'C:\\Users\\Jacob\\AppData\\Local\\Programs\\Python\\Python311\\Lib\\email\\_encoded_words.py',
   'PYMODULE'),
  ('base64',
   'C:\\Users\\Jacob\\AppData\\Local\\Programs\\Python\\Python311\\Lib\\base64.py',
   'PYMODULE'),
  ('getopt',
   'C:\\Users\\Jacob\\AppData\\Local\\Programs\\Python\\Python311\\Lib\\getopt.py',
   'PYMODULE'),
  ('email.charset',
   'C:\\Users\\Jacob\\AppData\\Local\\Programs\\Python\\Python311\\Lib\\email\\charset.py',
   'PYMODULE'),
  ('email.encoders',
   'C:\\Users\\Jacob\\AppData\\Local\\Programs\\Python\\Python311\\Lib\\email\\encoders.py',
   'PYMODULE'),
  ('email.base64mime',
   'C:\\Users\\Jacob\\AppData\\Local\\Programs\\Python\\Python311\\Lib\\email\\base64mime.py',
   'PYMODULE'),
  ('email._policybase',
   'C:\\Users\\Jacob\\AppData\\Local\\Programs\\Python\\Python311\\Lib\\email\\_policybase.py',
   'PYMODULE'),
  ('email.header',
   'C:\\Users\\Jacob\\AppData\\Local\\Programs\\Python\\Python311\\Lib\\email\\header.py',
   'PYMODULE'),
  ('email.errors',
   'C:\\Users\\Jacob\\AppData\\Local\\Programs\\Python\\Python311\\Lib\\email\\errors.py',
   'PYMODULE'),
  ('email.utils',
   'C:\\Users\\Jacob\\AppData\\Local\\Programs\\Python\\Python311\\Lib\\email\\utils.py',
   'PYMODULE'),
  ('email._parseaddr',
   'C:\\Users\\Jacob\\AppData\\Local\\Programs\\Python\\Python311\\Lib\\email\\_parseaddr.py',
   'PYMODULE'),
  ('calendar',
   'C:\\Users\\Jacob\\AppData\\Local\\Programs\\Python\\Python311\\Lib\\calendar.py',
   'PYMODULE'),
  ('datetime',
   'C:\\Users\\Jacob\\AppData\\Local\\Programs\\Python\\Python311\\Lib\\datetime.py',
   'PYMODULE'),
  ('_strptime',
   'C:\\Users\\Jacob\\AppData\\Local\\Programs\\Python\\Python311\\Lib\\_strptime.py',
   'PYMODULE'),
  ('socket',
   'C:\\Users\\Jacob\\AppData\\Local\\Programs\\Python\\Python311\\Lib\\socket.py',
   'PYMODULE'),
  ('selectors',
   'C:\\Users\\Jacob\\AppData\\Local\\Programs\\Python\\Python311\\Lib\\selectors.py',
   'PYMODULE'),
  ('quopri',
   'C:\\Users\\Jacob\\AppData\\Local\\Programs\\Python\\Python311\\Lib\\quopri.py',
   'PYMODULE'),
  ('email',
   'C:\\Users\\Jacob\\AppData\\Local\\Programs\\Python\\Python311\\Lib\\email\\__init__.py',
   'PYMODULE'),
  ('email.parser',
   'C:\\Users\\Jacob\\AppData\\Local\\Programs\\Python\\Python311\\Lib\\email\\parser.py',
   'PYMODULE'),
  ('email.feedparser',
   'C:\\Users\\Jacob\\AppData\\Local\\Programs\\Python\\Python311\\Lib\\email\\feedparser.py',
   'PYMODULE'),
  ('csv',
   'C:\\Users\\Jacob\\AppData\\Local\\Programs\\Python\\Python311\\Lib\\csv.py',
   'PYMODULE'),
  ('threading',
   'C:\\Users\\Jacob\\AppData\\Local\\Programs\\Python\\Python311\\Lib\\threading.py',
   'PYMODULE'),
  ('_threading_local',
   'C:\\Users\\Jacob\\AppData\\Local\\Programs\\Python\\Python311\\Lib\\_threading_local.py',
   'PYMODULE'),
  ('inspect',
   'C:\\Users\\Jacob\\AppData\\Local\\Programs\\Python\\Python311\\Lib\\inspect.py',
   'PYMODULE'),
  ('dis',
   'C:\\Users\\Jacob\\AppData\\Local\\Programs\\Python\\Python311\\Lib\\dis.py',
   'PYMODULE'),
  ('opcode',
   'C:\\Users\\Jacob\\AppData\\Local\\Programs\\Python\\Python311\\Lib\\opcode.py',
   'PYMODULE'),
  ('ast',
   'C:\\Users\\Jacob\\AppData\\Local\\Programs\\Python\\Python311\\Lib\\ast.py',
   'PYMODULE'),
  ('importlib.machinery',
   'C:\\Users\\Jacob\\AppData\\Local\\Programs\\Python\\Python311\\Lib\\importlib\\machinery.py',
   'PYMODULE'),
  ('importlib.util',
   'C:\\Users\\Jacob\\AppData\\Local\\Programs\\Python\\Python311\\Lib\\importlib\\util.py',
   'PYMODULE'),
  ('importlib',
   'C:\\Users\\Jacob\\AppData\\Local\\Programs\\Python\\Python311\\Lib\\importlib\\__init__.py',
   'PYMODULE'),
  ('pkg_resources',
   'C:\\Users\\Jacob\\AppData\\Local\\Programs\\Python\\Python311\\Lib\\site-packages\\pkg_resources\\__init__.py',
   'PYMODULE'),
  ('pkg_resources._vendor.zipp',
   'C:\\Users\\Jacob\\AppData\\Local\\Programs\\Python\\Python311\\Lib\\site-packages\\pkg_resources\\_vendor\\zipp.py',
   'PYMODULE'),
  ('pkg_resources._vendor.typing_extensions',
   'C:\\Users\\Jacob\\AppData\\Local\\Programs\\Python\\Python311\\Lib\\site-packages\\pkg_resources\\_vendor\\typing_extensions.py',
   'PYMODULE'),
  ('pkg_resources._vendor.platformdirs.windows',
   'C:\\Users\\Jacob\\AppData\\Local\\Programs\\Python\\Python311\\Lib\\site-packages\\pkg_resources\\_vendor\\platformdirs\\windows.py',
   'PYMODULE'),
  ('ctypes',
   'C:\\Users\\Jacob\\AppData\\Local\\Programs\\Python\\Python311\\Lib\\ctypes\\__init__.py',
   'PYMODULE'),
  ('ctypes._endian',
   'C:\\Users\\Jacob\\AppData\\Local\\Programs\\Python\\Python311\\Lib\\ctypes\\_endian.py',
   'PYMODULE'),
  ('__future__',
   'C:\\Users\\Jacob\\AppData\\Local\\Programs\\Python\\Python311\\Lib\\__future__.py',
   'PYMODULE'),
  ('pkg_resources._vendor.platformdirs.version',
   'C:\\Users\\Jacob\\AppData\\Local\\Programs\\Python\\Python311\\Lib\\site-packages\\pkg_resources\\_vendor\\platformdirs\\version.py',
   'PYMODULE'),
  ('pkg_resources._vendor.platformdirs.unix',
   'C:\\Users\\Jacob\\AppData\\Local\\Programs\\Python\\Python311\\Lib\\site-packages\\pkg_resources\\_vendor\\platformdirs\\unix.py',
   'PYMODULE'),
  ('configparser',
   'C:\\Users\\Jacob\\AppData\\Local\\Programs\\Python\\Python311\\Lib\\configparser.py',
   'PYMODULE'),
  ('pkg_resources._vendor.platformdirs.macos',
   'C:\\Users\\Jacob\\AppData\\Local\\Programs\\Python\\Python311\\Lib\\site-packages\\pkg_resources\\_vendor\\platformdirs\\macos.py',
   'PYMODULE'),
  ('pkg_resources._vendor.platformdirs.api',
   'C:\\Users\\Jacob\\AppData\\Local\\Programs\\Python\\Python311\\Lib\\site-packages\\pkg_resources\\_vendor\\platformdirs\\api.py',
   'PYMODULE'),
  ('pkg_resources._vendor.platformdirs.android',
   'C:\\Users\\Jacob\\AppData\\Local\\Programs\\Python\\Python311\\Lib\\site-packages\\pkg_resources\\_vendor\\platformdirs\\android.py',
   'PYMODULE'),
  ('pkg_resources._vendor.platformdirs.__main__',
   'C:\\Users\\Jacob\\AppData\\Local\\Programs\\Python\\Python311\\Lib\\site-packages\\pkg_resources\\_vendor\\platformdirs\\__main__.py',
   'PYMODULE'),
  ('pkg_resources._vendor.platformdirs',
   'C:\\Users\\Jacob\\AppData\\Local\\Programs\\Python\\Python311\\Lib\\site-packages\\pkg_resources\\_vendor\\platformdirs\\__init__.py',
   'PYMODULE'),
  ('pkg_resources._vendor.packaging.version',
   'C:\\Users\\Jacob\\AppData\\Local\\Programs\\Python\\Python311\\Lib\\site-packages\\pkg_resources\\_vendor\\packaging\\version.py',
   'PYMODULE'),
  ('pkg_resources._vendor.packaging.utils',
   'C:\\Users\\Jacob\\AppData\\Local\\Programs\\Python\\Python311\\Lib\\site-packages\\pkg_resources\\_vendor\\packaging\\utils.py',
   'PYMODULE'),
  ('pkg_resources._vendor.packaging.tags',
   'C:\\Users\\Jacob\\AppData\\Local\\Programs\\Python\\Python311\\Lib\\site-packages\\pkg_resources\\_vendor\\packaging\\tags.py',
   'PYMODULE'),
  ('subprocess',
   'C:\\Users\\Jacob\\AppData\\Local\\Programs\\Python\\Python311\\Lib\\subprocess.py',
   'PYMODULE'),
  ('signal',
   'C:\\Users\\Jacob\\AppData\\Local\\Programs\\Python\\Python311\\Lib\\signal.py',
   'PYMODULE'),
  ('logging',
   'C:\\Users\\Jacob\\AppData\\Local\\Programs\\Python\\Python311\\Lib\\logging\\__init__.py',
   'PYMODULE'),
  ('pickle',
   'C:\\Users\\Jacob\\AppData\\Local\\Programs\\Python\\Python311\\Lib\\pickle.py',
   'PYMODULE'),
  ('pprint',
   'C:\\Users\\Jacob\\AppData\\Local\\Programs\\Python\\Python311\\Lib\\pprint.py',
   'PYMODULE'),
  ('dataclasses',
   'C:\\Users\\Jacob\\AppData\\Local\\Programs\\Python\\Python311\\Lib\\dataclasses.py',
   'PYMODULE'),
  ('_compat_pickle',
   'C:\\Users\\Jacob\\AppData\\Local\\Programs\\Python\\Python311\\Lib\\_compat_pickle.py',
   'PYMODULE'),
  ('pkg_resources._vendor.packaging.specifiers',
   'C:\\Users\\Jacob\\AppData\\Local\\Programs\\Python\\Python311\\Lib\\site-packages\\pkg_resources\\_vendor\\packaging\\specifiers.py',
   'PYMODULE'),
  ('pkg_resources._vendor.packaging.requirements',
   'C:\\Users\\Jacob\\AppData\\Local\\Programs\\Python\\Python311\\Lib\\site-packages\\pkg_resources\\_vendor\\packaging\\requirements.py',
   'PYMODULE'),
  ('pkg_resources._vendor.packaging.metadata',
   'C:\\Users\\Jacob\\AppData\\Local\\Programs\\Python\\Python311\\Lib\\site-packages\\pkg_resources\\_vendor\\packaging\\metadata.py',
   'PYMODULE'),
  ('pkg_resources._vendor.packaging.markers',
   'C:\\Users\\Jacob\\AppData\\Local\\Programs\\Python\\Python311\\Lib\\site-packages\\pkg_resources\\_vendor\\packaging\\markers.py',
   'PYMODULE'),
  ('pkg_resources._vendor.packaging._tokenizer',
   'C:\\Users\\Jacob\\AppData\\Local\\Programs\\Python\\Python311\\Lib\\site-packages\\pkg_resources\\_vendor\\packaging\\_tokenizer.py',
   'PYMODULE'),
  ('pkg_resources._vendor.packaging._structures',
   'C:\\Users\\Jacob\\AppData\\Local\\Programs\\Python\\Python311\\Lib\\site-packages\\pkg_resources\\_vendor\\packaging\\_structures.py',
   'PYMODULE'),
  ('pkg_resources._vendor.packaging._parser',
   'C:\\Users\\Jacob\\AppData\\Local\\Programs\\Python\\Python311\\Lib\\site-packages\\pkg_resources\\_vendor\\packaging\\_parser.py',
   'PYMODULE'),
  ('pkg_resources._vendor.packaging._musllinux',
   'C:\\Users\\Jacob\\AppData\\Local\\Programs\\Python\\Python311\\Lib\\site-packages\\pkg_resources\\_vendor\\packaging\\_musllinux.py',
   'PYMODULE'),
  ('pkg_resources._vendor.packaging._manylinux',
   'C:\\Users\\Jacob\\AppData\\Local\\Programs\\Python\\Python311\\Lib\\site-packages\\pkg_resources\\_vendor\\packaging\\_manylinux.py',
   'PYMODULE'),
  ('pkg_resources._vendor.packaging._elffile',
   'C:\\Users\\Jacob\\AppData\\Local\\Programs\\Python\\Python311\\Lib\\site-packages\\pkg_resources\\_vendor\\packaging\\_elffile.py',
   'PYMODULE'),
  ('pkg_resources._vendor.packaging',
   'C:\\Users\\Jacob\\AppData\\Local\\Programs\\Python\\Python311\\Lib\\site-packages\\pkg_resources\\_vendor\\packaging\\__init__.py',
   'PYMODULE'),
  ('pkg_resources._vendor.more_itertools.recipes',
   'C:\\Users\\Jacob\\AppData\\Local\\Programs\\Python\\Python311\\Lib\\site-packages\\pkg_resources\\_vendor\\more_itertools\\recipes.py',
   'PYMODULE'),
  ('pkg_resources._vendor.more_itertools.more',
   'C:\\Users\\Jacob\\AppData\\Local\\Programs\\Python\\Python311\\Lib\\site-packages\\pkg_resources\\_vendor\\more_itertools\\more.py',
   'PYMODULE'),
  ('queue',
   'C:\\Users\\Jacob\\AppData\\Local\\Programs\\Python\\Python311\\Lib\\queue.py',
   'PYMODULE'),
  ('pkg_resources._vendor.more_itertools',
   'C:\\Users\\Jacob\\AppData\\Local\\Programs\\Python\\Python311\\Lib\\site-packages\\pkg_resources\\_vendor\\more_itertools\\__init__.py',
   'PYMODULE'),
  ('pkg_resources._vendor.jaraco.text',
   'C:\\Users\\Jacob\\AppData\\Local\\Programs\\Python\\Python311\\Lib\\site-packages\\pkg_resources\\_vendor\\jaraco\\text\\__init__.py',
   'PYMODULE'),
  ('pkg_resources._vendor.jaraco.functools',
   'C:\\Users\\Jacob\\AppData\\Local\\Programs\\Python\\Python311\\Lib\\site-packages\\pkg_resources\\_vendor\\jaraco\\functools.py',
   'PYMODULE'),
  ('pkg_resources._vendor.jaraco.context',
   'C:\\Users\\Jacob\\AppData\\Local\\Programs\\Python\\Python311\\Lib\\site-packages\\pkg_resources\\_vendor\\jaraco\\context.py',
   'PYMODULE'),
  ('pkg_resources._vendor.jaraco',
   'C:\\Users\\Jacob\\AppData\\Local\\Programs\\Python\\Python311\\Lib\\site-packages\\pkg_resources\\_vendor\\jaraco\\__init__.py',
   'PYMODULE'),
  ('pkg_resources._vendor.importlib_resources.simple',
   'C:\\Users\\Jacob\\AppData\\Local\\Programs\\Python\\Python311\\Lib\\site-packages\\pkg_resources\\_vendor\\importlib_resources\\simple.py',
   'PYMODULE'),
  ('pkg_resources._vendor.importlib_resources.readers',
   'C:\\Users\\Jacob\\AppData\\Local\\Programs\\Python\\Python311\\Lib\\site-packages\\pkg_resources\\_vendor\\importlib_resources\\readers.py',
   'PYMODULE'),
  ('pkg_resources._vendor.importlib_resources.abc',
   'C:\\Users\\Jacob\\AppData\\Local\\Programs\\Python\\Python311\\Lib\\site-packages\\pkg_resources\\_vendor\\importlib_resources\\abc.py',
   'PYMODULE'),
  ('pkg_resources._vendor.importlib_resources._legacy',
   'C:\\Users\\Jacob\\AppData\\Local\\Programs\\Python\\Python311\\Lib\\site-packages\\pkg_resources\\_vendor\\importlib_resources\\_legacy.py',
   'PYMODULE'),
  ('pkg_resources._vendor.importlib_resources._itertools',
   'C:\\Users\\Jacob\\AppData\\Local\\Programs\\Python\\Python311\\Lib\\site-packages\\pkg_resources\\_vendor\\importlib_resources\\_itertools.py',
   'PYMODULE'),
  ('pkg_resources._vendor.importlib_resources._compat',
   'C:\\Users\\Jacob\\AppData\\Local\\Programs\\Python\\Python311\\Lib\\site-packages\\pkg_resources\\_vendor\\importlib_resources\\_compat.py',
   'PYMODULE'),
  ('pkg_resources._vendor.importlib_resources._common',
   'C:\\Users\\Jacob\\AppData\\Local\\Programs\\Python\\Python311\\Lib\\site-packages\\pkg_resources\\_vendor\\importlib_resources\\_common.py',
   'PYMODULE'),
  ('pkg_resources._vendor.importlib_resources._adapters',
   'C:\\Users\\Jacob\\AppData\\Local\\Programs\\Python\\Python311\\Lib\\site-packages\\pkg_resources\\_vendor\\importlib_resources\\_adapters.py',
   'PYMODULE'),
  ('pkg_resources._vendor.importlib_resources',
   'C:\\Users\\Jacob\\AppData\\Local\\Programs\\Python\\Python311\\Lib\\site-packages\\pkg_resources\\_vendor\\importlib_resources\\__init__.py',
   'PYMODULE'),
  ('pkg_resources._vendor',
   'C:\\Users\\Jacob\\AppData\\Local\\Programs\\Python\\Python311\\Lib\\site-packages\\pkg_resources\\_vendor\\__init__.py',
   'PYMODULE'),
  ('sysconfig',
   'C:\\Users\\Jacob\\AppData\\Local\\Programs\\Python\\Python311\\Lib\\sysconfig.py',
   'PYMODULE'),
  ('_aix_support',
   'C:\\Users\\Jacob\\AppData\\Local\\Programs\\Python\\Python311\\Lib\\_aix_support.py',
   'PYMODULE'),
  ('_bootsubprocess',
   'C:\\Users\\Jacob\\AppData\\Local\\Programs\\Python\\Python311\\Lib\\_bootsubprocess.py',
   'PYMODULE'),
  ('pkg_resources.extern',
   'C:\\Users\\Jacob\\AppData\\Local\\Programs\\Python\\Python311\\Lib\\site-packages\\pkg_resources\\extern\\__init__.py',
   'PYMODULE'),
  ('imp',
   'C:\\Users\\Jacob\\AppData\\Local\\Programs\\Python\\Python311\\Lib\\imp.py',
   'PYMODULE'),
  ('plistlib',
   'C:\\Users\\Jacob\\AppData\\Local\\Programs\\Python\\Python311\\Lib\\plistlib.py',
   'PYMODULE'),
  ('xml.parsers.expat',
   'C:\\Users\\Jacob\\AppData\\Local\\Programs\\Python\\Python311\\Lib\\xml\\parsers\\expat.py',
   'PYMODULE'),
  ('xml.parsers',
   'C:\\Users\\Jacob\\AppData\\Local\\Programs\\Python\\Python311\\Lib\\xml\\parsers\\__init__.py',
   'PYMODULE'),
  ('xml',
   'C:\\Users\\Jacob\\AppData\\Local\\Programs\\Python\\Python311\\Lib\\xml\\__init__.py',
   'PYMODULE'),
  ('xml.sax.expatreader',
   'C:\\Users\\Jacob\\AppData\\Local\\Programs\\Python\\Python311\\Lib\\xml\\sax\\expatreader.py',
   'PYMODULE'),
  ('xml.sax.saxutils',
   'C:\\Users\\Jacob\\AppData\\Local\\Programs\\Python\\Python311\\Lib\\xml\\sax\\saxutils.py',
   'PYMODULE'),
  ('xml.sax',
   'C:\\Users\\Jacob\\AppData\\Local\\Programs\\Python\\Python311\\Lib\\xml\\sax\\__init__.py',
   'PYMODULE'),
  ('xml.sax.handler',
   'C:\\Users\\Jacob\\AppData\\Local\\Programs\\Python\\Python311\\Lib\\xml\\sax\\handler.py',
   'PYMODULE'),
  ('xml.sax._exceptions',
   'C:\\Users\\Jacob\\AppData\\Local\\Programs\\Python\\Python311\\Lib\\xml\\sax\\_exceptions.py',
   'PYMODULE'),
  ('xml.sax.xmlreader',
   'C:\\Users\\Jacob\\AppData\\Local\\Programs\\Python\\Python311\\Lib\\xml\\sax\\xmlreader.py',
   'PYMODULE'),
  ('platform',
   'C:\\Users\\Jacob\\AppData\\Local\\Programs\\Python\\Python311\\Lib\\platform.py',
   'PYMODULE'),
  ('_py_abc',
   'C:\\Users\\Jacob\\AppData\\Local\\Programs\\Python\\Python311\\Lib\\_py_abc.py',
   'PYMODULE'),
  ('getpass',
   'C:\\Users\\Jacob\\AppData\\Local\\Programs\\Python\\Python311\\Lib\\getpass.py',
   'PYMODULE'),
  ('nturl2path',
   'C:\\Users\\Jacob\\AppData\\Local\\Programs\\Python\\Python311\\Lib\\nturl2path.py',
   'PYMODULE'),
  ('ftplib',
   'C:\\Users\\Jacob\\AppData\\Local\\Programs\\Python\\Python311\\Lib\\ftplib.py',
   'PYMODULE'),
  ('netrc',
   'C:\\Users\\Jacob\\AppData\\Local\\Programs\\Python\\Python311\\Lib\\netrc.py',
   'PYMODULE'),
  ('shlex',
   'C:\\Users\\Jacob\\AppData\\Local\\Programs\\Python\\Python311\\Lib\\shlex.py',
   'PYMODULE'),
  ('mimetypes',
   'C:\\Users\\Jacob\\AppData\\Local\\Programs\\Python\\Python311\\Lib\\mimetypes.py',
   'PYMODULE'),
  ('http.cookiejar',
   'C:\\Users\\Jacob\\AppData\\Local\\Programs\\Python\\Python311\\Lib\\http\\cookiejar.py',
   'PYMODULE'),
  ('http',
   'C:\\Users\\Jacob\\AppData\\Local\\Programs\\Python\\Python311\\Lib\\http\\__init__.py',
   'PYMODULE'),
  ('ssl',
   'C:\\Users\\Jacob\\AppData\\Local\\Programs\\Python\\Python311\\Lib\\ssl.py',
   'PYMODULE'),
  ('http.client',
   'C:\\Users\\Jacob\\AppData\\Local\\Programs\\Python\\Python311\\Lib\\http\\client.py',
   'PYMODULE'),
  ('hashlib',
   'C:\\Users\\Jacob\\AppData\\Local\\Programs\\Python\\Python311\\Lib\\hashlib.py',
   'PYMODULE'),
  ('bisect',
   'C:\\Users\\Jacob\\AppData\\Local\\Programs\\Python\\Python311\\Lib\\bisect.py',
   'PYMODULE'),
  ('stringprep',
   'C:\\Users\\Jacob\\AppData\\Local\\Programs\\Python\\Python311\\Lib\\stringprep.py',
   'PYMODULE'),
  ('tracemalloc',
   'C:\\Users\\Jacob\\AppData\\Local\\Programs\\Python\\Python311\\Lib\\tracemalloc.py',
   'PYMODULE'),
  ('random',
   'C:\\Users\\Jacob\\AppData\\Local\\Programs\\Python\\Python311\\Lib\\random.py',
   'PYMODULE'),
  ('statistics',
   'C:\\Users\\Jacob\\AppData\\Local\\Programs\\Python\\Python311\\Lib\\statistics.py',
   'PYMODULE'),
  ('decimal',
   'C:\\Users\\Jacob\\AppData\\Local\\Programs\\Python\\Python311\\Lib\\decimal.py',
   'PYMODULE'),
  ('_pydecimal',
   'C:\\Users\\Jacob\\AppData\\Local\\Programs\\Python\\Python311\\Lib\\_pydecimal.py',
   'PYMODULE'),
  ('contextvars',
   'C:\\Users\\Jacob\\AppData\\Local\\Programs\\Python\\Python311\\Lib\\contextvars.py',
   'PYMODULE'),
  ('fractions',
   'C:\\Users\\Jacob\\AppData\\Local\\Programs\\Python\\Python311\\Lib\\fractions.py',
   'PYMODULE'),
  ('numbers',
   'C:\\Users\\Jacob\\AppData\\Local\\Programs\\Python\\Python311\\Lib\\numbers.py',
   'PYMODULE'),
  ('pygame',
   'C:\\Users\\Jacob\\AppData\\Local\\Programs\\Python\\Python311\\Lib\\site-packages\\pygame\\__init__.py',
   'PYMODULE'),
  ('pygame.colordict',
   'C:\\Users\\Jacob\\AppData\\Local\\Programs\\Python\\Python311\\Lib\\site-packages\\pygame\\colordict.py',
   'PYMODULE'),
  ('pygame.macosx',
   'C:\\Users\\Jacob\\AppData\\Local\\Programs\\Python\\Python311\\Lib\\site-packages\\pygame\\macosx.py',
   'PYMODULE'),
  ('pygame.pkgdata',
   'C:\\Users\\Jacob\\AppData\\Local\\Programs\\Python\\Python311\\Lib\\site-packages\\pygame\\pkgdata.py',
   'PYMODULE'),
  ('pygame.fastevent',
   'C:\\Users\\Jacob\\AppData\\Local\\Programs\\Python\\Python311\\Lib\\site-packages\\pygame\\fastevent.py',
   'PYMODULE'),
  ('pygame.sndarray',
   'C:\\Users\\Jacob\\AppData\\Local\\Programs\\Python\\Python311\\Lib\\site-packages\\pygame\\sndarray.py',
   'PYMODULE'),
  ('pygame.surfarray',
   'C:\\Users\\Jacob\\AppData\\Local\\Programs\\Python\\Python311\\Lib\\site-packages\\pygame\\surfarray.py',
   'PYMODULE'),
  ('pygame.sysfont',
   'C:\\Users\\Jacob\\AppData\\Local\\Programs\\Python\\Python311\\Lib\\site-packages\\pygame\\sysfont.py',
   'PYMODULE'),
  ('pygame.ftfont',
   'C:\\Users\\Jacob\\AppData\\Local\\Programs\\Python\\Python311\\Lib\\site-packages\\pygame\\ftfont.py',
   'PYMODULE'),
  ('pygame.threads',
   'C:\\Users\\Jacob\\AppData\\Local\\Programs\\Python\\Python311\\Lib\\site-packages\\pygame\\threads\\__init__.py',
   'PYMODULE'),
  ('pygame.sprite',
   'C:\\Users\\Jacob\\AppData\\Local\\Programs\\Python\\Python311\\Lib\\site-packages\\pygame\\sprite.py',
   'PYMODULE'),
  ('pygame.cursors',
   'C:\\Users\\Jacob\\AppData\\Local\\Programs\\Python\\Python311\\Lib\\site-packages\\pygame\\cursors.py',
   'PYMODULE'),
  ('pygame.version',
   'C:\\Users\\Jacob\\AppData\\Local\\Programs\\Python\\Python311\\Lib\\site-packages\\pygame\\version.py',
   'PYMODULE'),
  ('turtle',
   'C:\\Users\\Jacob\\AppData\\Local\\Programs\\Python\\Python311\\Lib\\turtle.py',
   'PYMODULE'),
  ('tkinter.simpledialog',
   'C:\\Users\\Jacob\\AppData\\Local\\Programs\\Python\\Python311\\Lib\\tkinter\\simpledialog.py',
   'PYMODULE'),
  ('tkinter.messagebox',
   'C:\\Users\\Jacob\\AppData\\Local\\Programs\\Python\\Python311\\Lib\\tkinter\\messagebox.py',
   'PYMODULE'),
  ('tkinter.commondialog',
   'C:\\Users\\Jacob\\AppData\\Local\\Programs\\Python\\Python311\\Lib\\tkinter\\commondialog.py',
   'PYMODULE'),
  ('tkinter',
   'C:\\Users\\Jacob\\AppData\\Local\\Programs\\Python\\Python311\\Lib\\tkinter\\__init__.py',
   'PYMODULE'),
  ('tkinter.constants',
   'C:\\Users\\Jacob\\AppData\\Local\\Programs\\Python\\Python311\\Lib\\tkinter\\constants.py',
   'PYMODULE')])
